<svg width="38" height="38" viewBox="0 0 38 38" fill="none" xmlns="http://www.w3.org/2000/svg">
<path d="M37.4377 13.163L24.8793 0.602706C24.5227 0.242686 24.0368 0.0403824 23.53 0.0410171H23.5243C23.0208 0.0412551 22.5386 0.243638 22.1858 0.602706L8.86389 13.9227H1.90403C0.85245 13.9227 0 14.7751 0 15.8267V33.5976C0 34.6492 0.85245 35.5017 1.90403 35.5017H11.3074L13.2013 37.3975C13.5579 37.7575 14.0438 37.9598 14.5506 37.9591H14.5557C15.0593 37.959 15.5418 37.7566 15.8948 37.3975L17.7925 35.5017H32.3685C33.4201 35.5017 34.2725 34.6492 34.2725 33.5976V19.0217L37.4345 15.8597C37.7954 15.5064 37.9991 15.023 38 14.518C38.0019 14.0091 37.7993 13.5209 37.4377 13.163ZM29.3639 6.8841L22.3254 13.9227H16.9357L26.6691 4.18926L29.3639 6.8841ZM23.0845 1.4976C23.3259 1.25031 23.7221 1.24555 23.9694 1.48705C23.973 1.49054 23.9766 1.49403 23.98 1.4976L25.7717 3.29183L15.1402 13.9227H10.6588L23.0845 1.4976ZM14.9961 36.5026C14.8801 36.6238 14.7197 36.6925 14.5519 36.693C14.3818 36.6926 14.219 36.624 14.1 36.5026L13.1029 35.5017H15.9977L14.9961 36.5026ZM33.0032 33.5976C33.0032 33.9482 32.719 34.2323 32.3685 34.2323H1.90403C1.55353 34.2323 1.26935 33.9482 1.26935 33.5976V24.7122H33.0032V33.5976ZM33.0032 23.4428H1.26935V19.6348H33.0032V23.4428ZM33.0032 18.3654H1.26935V15.8267C1.26935 15.4762 1.55353 15.192 1.90403 15.192H32.3685C32.719 15.192 33.0032 15.4762 33.0032 15.8267V18.3654ZM36.5402 14.9591L34.2725 17.2268V15.8267C34.2725 14.7751 33.4201 13.9227 32.3685 13.9227H24.1177L30.2588 7.78154L36.5377 14.0604C36.6596 14.1799 36.7283 14.3435 36.7281 14.5142C36.7279 14.6817 36.6602 14.8422 36.5402 14.9591Z" fill="#666666"/>
</svg>
