<svg width="312" height="312" viewBox="0 0 312 312" fill="none" xmlns="http://www.w3.org/2000/svg">
<path d="M156.001 0.445312C125.235 0.445313 95.1599 9.56849 69.5789 26.6611C43.9979 43.7538 24.06 68.0483 12.2863 96.4723C0.512712 124.896 -2.56781 156.173 3.43434 186.348C9.43649 216.523 24.2517 244.24 46.0066 265.995C67.7614 287.75 95.4788 302.565 125.654 308.567C155.828 314.57 187.105 311.489 215.529 299.715C243.954 287.942 268.248 268.004 285.341 242.423C302.433 216.842 311.557 186.767 311.557 156.001C311.557 114.745 295.168 75.1788 265.995 46.0065C236.823 16.8342 197.257 0.445313 156.001 0.445312ZM257.598 103.793L129.848 231.445L54.4037 156.001C51.8252 153.422 50.3766 149.925 50.3766 146.279C50.3766 142.632 51.8252 139.135 54.4037 136.556C56.9822 133.978 60.4794 132.529 64.1259 132.529C67.7725 132.529 71.2697 133.978 73.8482 136.556L130.043 192.751L238.348 84.5425C239.625 83.2658 241.141 82.253 242.809 81.5621C244.477 80.8711 246.265 80.5155 248.07 80.5155C249.876 80.5155 251.664 80.8711 253.332 81.5621C255 82.253 256.516 83.2658 257.793 84.5425C259.069 85.8193 260.082 87.335 260.773 89.0031C261.464 90.6713 261.82 92.4592 261.82 94.2648C261.82 96.0703 261.464 97.8582 260.773 99.5264C260.082 101.195 259.069 102.71 257.793 103.987L257.598 103.793Z" fill="#00B412"/>
</svg>
