<svg width="316" height="316" viewBox="0 0 316 316" fill="none" xmlns="http://www.w3.org/2000/svg">
<path fill-rule="evenodd" clip-rule="evenodd" d="M269.392 46.3555C207.699 -15.3656 107.739 -15.465 46.1654 46.1368C-15.448 107.798 -15.3884 207.765 46.3442 269.486C108.037 331.207 208.017 331.286 269.571 269.684C331.165 208.083 331.105 108.077 269.392 46.3555ZM189.857 224.343L156.319 190.789L122.78 224.343C109.09 238.039 98.7981 249.965 82.4659 233.646C66.1734 217.326 78.0351 207.029 91.7844 193.313L125.323 159.779L91.7844 126.225C78.0748 112.529 66.1734 102.232 82.4659 85.8927C98.7981 69.5928 109.09 81.4997 122.78 95.2155L156.319 128.73L189.857 95.2155C203.567 81.5196 213.799 69.5729 230.131 85.8927C246.464 102.232 234.562 112.529 220.853 126.225L187.314 159.759L220.853 193.293C234.542 207.029 246.464 217.326 230.131 233.646C213.839 249.965 203.567 238.039 189.857 224.343Z" fill="#ED3237"/>
</svg>
