[
  { "id": 1, "check_uploads": "Check Updates", "view_cart": "View Cart" },
  { "id": 1, "check_uploads": "Check Updates", "view_cart": "View Cart" },
  { "id": 1, "check_uploads": "Check Updates", "view_cart": "View Cart" }
]
